…
# ---- FUTURE FORECAST ----

calibration_tbl %>%
    modeltime_forecast(
        new_data    = testing(splits),
        actual_data = m750
    )
#> # Forecast Results
#>   
#> Conf Method: conformal_default | Conf Interval: 0.95 | Conf By ID: FALSE
#> (GLOBAL CONFIDENCE)
#> # A tibble: 337 × 7
#>    .model_id .model_desc .key   .index     .value .conf_lo .conf_hi
#>        <int> <chr>       <fct>  <date>      <dbl>    <dbl>    <dbl>
#>  1        NA ACTUAL      actual 1990-01-01   6370       NA       NA
#>  2        NA ACTUAL      actual 1990-02-01   6430       NA       NA
#>  3        NA ACTUAL      actual 1990-03-01   6520       NA       NA
#>  4        NA ACTUAL      actual 1990-04-01   6580       NA       NA
#>  5        NA ACTUAL      actual 1990-05-01   6620       NA       NA
#>  6        NA ACTUAL      actual 1990-06-01   6690       NA       NA
#>  7        NA ACTUAL      actual 1990-07-01   6000       NA       NA
#>  8        NA ACTUAL      actual 1990-08-01   5450       NA       NA
#>  9        NA ACTUAL      actual 1990-09-01   6480       NA       NA
#> 10        NA ACTUAL      actual 1990-10-01   6820       NA       NA
#> # ℹ 327 more rows

# ---- ALTERNATIVE: FORECAST WITHOUT CONFIDENCE INTERVALS ----
# Skips Calibration Step, No Confidence Intervals

models_tbl %>%
    modeltime_forecast(
        new_data    = testing(splits),
        actual_data = m750
    )
#> # Forecast Results
#>   
#> Conf Method: conformal_default | Conf Interval: | Conf By ID: FALSE (GLOBAL
#> CONFIDENCE)
#> # A tibble: 337 × 5
#>    .model_id .model_desc .key   .index     .value
#>        <int> <chr>       <fct>  <date>      <dbl>
#>  1        NA ACTUAL      actual 1990-01-01   6370
#>  2        NA ACTUAL      actual 1990-02-01   6430
#>  3        NA ACTUAL      actual 1990-03-01   6520
#>  4        NA ACTUAL      actual 1990-04-01   6580
#>  5        NA ACTUAL      actual 1990-05-01   6620
#>  6        NA ACTUAL      actual 1990-06-01   6690
#>  7        NA ACTUAL      actual 1990-07-01   6000
#>  8        NA ACTUAL      actual 1990-08-01   5450
#>  9        NA ACTUAL      actual 1990-09-01   6480
#> 10        NA ACTUAL      actual 1990-10-01   6820
#> # ℹ 327 more rows

# ---- KEEP NEW DATA WITH FORECAST ----
# Keeps the new data. Useful if new data has information
#  like ID features that should be kept with the forecast data

calibration_tbl %>%
    modeltime_forecast(
        new_data      = testing(splits),
        keep_data     = TRUE
    )
#> # Forecast Results
#>   
#> Conf Method: conformal_default | Conf Interval: 0.95 | Conf By ID: FALSE
#> (GLOBAL CONFIDENCE)
#> # A tibble: 31 × 10
#>    .model_id .model_desc .key       .index     .value .conf_lo .conf_hi id   
#>        <int> <chr>       <fct>      <date>      <dbl>    <dbl>    <dbl> <fct>
#>  1         1 PROPHET     prediction 2012-12-01 10600.   10141.   11059. M750 
#>  2         1 PROPHET     prediction 2013-01-01 10512.   10054.   10971. M750 
#>  3         1 PROPHET     prediction 2013-02-01 10553.   10094.   11012. M750 
#>  4         1 PROPHET     prediction 2013-03-01 10691.   10232.   11150. M750 
#>  5         1 PROPHET     prediction 2013-04-01 10720.   10261.   11179. M750 
#>  6         1 PROPHET     prediction 2013-05-01 10722.   10263.   11180. M750 
#>  7         1 PROPHET     prediction 2013-06-01 10562.   10104.   11021. M750 
#>  8         1 PROPHET     prediction 2013-07-01  9684.    9226.   10143. M750 
#>  9         1 PROPHET     prediction 2013-08-01  9536.    9077.    9995. M750 
#> 10         1 PROPHET     prediction 2013-09-01 10165.    9706.   10623. M750 
#> # ℹ 21 more rows
#> # ℹ 2 more variables: date <date>, value <dbl>
```
