Forecast future data — modeltime_forecast • modeltime
…
calibration_tbl %>%
    modeltime_accuracy()
#> # A tibble: 1 × 9
#>   .model_id .model_desc .type   mae  mape  mase smape  rmse   rsq
#>       <int> <chr>       <chr> <dbl> <dbl> <dbl> <dbl> <dbl> <dbl>
#> 1         1 PROPHET     Test   173.  1.66 0.590  1.66  231. 0.882

# ---- FUTURE FORECAST ----

calibration_tbl %>%
    modeltime_forecast(
        new_data    = testing(splits),
        actual_data = m750
    )
#> # A tibble: 337 × 7
#>    .model_id .model_desc .key   .index     .value .conf_lo .conf_hi
#>        <int> <chr>       <fct>  <date>      <dbl>    <dbl>    <dbl>
#>  1        NA ACTUAL      actual 1990-01-01   6370       NA       NA
#>  2        NA ACTUAL      actual 1990-02-01   6430       NA       NA
#>  3        NA ACTUAL      actual 1990-03-01   6520       NA       NA
#>  4        NA ACTUAL      actual 1990-04-01   6580       NA       NA
#>  5        NA ACTUAL      actual 1990-05-01   6620       NA       NA
#>  6        NA ACTUAL      actual 1990-06-01   6690       NA       NA
#>  7        NA ACTUAL      actual 1990-07-01   6000       NA       NA
#>  8        NA ACTUAL      actual 1990-08-01   5450       NA       NA
#>  9        NA ACTUAL      actual 1990-09-01   6480       NA       NA
#> 10        NA ACTUAL      actual 1990-10-01   6820       NA       NA
#> # … with 327 more rows

# ---- ALTERNATIVE: FORECAST WITHOUT CONFIDENCE INTERVALS ----
# Skips Calibration Step, No Confidence Intervals

models_tbl %>%
    modeltime_forecast(
        new_data    = testing(splits),
        actual_data = m750
    )
#> # A tibble: 337 × 5
#>    .model_id .model_desc .key   .index     .value
#>        <int> <chr>       <fct>  <date>      <dbl>
#>  1        NA ACTUAL      actual 1990-01-01   6370
#>  2        NA ACTUAL      actual 1990-02-01   6430
#>  3        NA ACTUAL      actual 1990-03-01   6520
#>  4        NA ACTUAL      actual 1990-04-01   6580
#>  5        NA ACTUAL      actual 1990-05-01   6620
#>  6        NA ACTUAL      actual 1990-06-01   6690
#>  7        NA ACTUAL      actual 1990-07-01   6000
#>  8        NA ACTUAL      actual 1990-08-01   5450
#>  9        NA ACTUAL      actual 1990-09-01   6480
#> 10        NA ACTUAL      actual 1990-10-01   6820
#> # … with 327 more rows

# ---- KEEP NEW DATA WITH FORECAST ----
# Keeps the new data. Useful if new data has information
#  like ID features that should be kept with the forecast data

calibration_tbl %>%
    modeltime_forecast(
        new_data      = testing(splits),
        keep_data     = TRUE
    )
#> # A tibble: 31 × 10
#>    .model_id .model_d…¹ .key  .index     .value .conf…² .conf…³ id    date      
#>        <int> <chr>      <fct> <date>      <dbl>   <dbl>   <dbl> <fct> <date>    
#>  1         1 PROPHET    pred… 2012-12-01 10603.  10147.  11059. M750  2012-12-01
#>  2         1 PROPHET    pred… 2013-01-01 10515.  10059.  10971. M750  2013-01-01
#>  3         1 PROPHET    pred… 2013-02-01 10556.  10100.  11012. M750  2013-02-01
#>  4         1 PROPHET    pred… 2013-03-01 10693.  10237.  11149. M750  2013-03-01
#>  5         1 PROPHET    pred… 2013-04-01 10722.  10266.  11178. M750  2013-04-01
#>  6         1 PROPHET    pred… 2013-05-01 10724.  10268.  11180. M750  2013-05-01
#>  7         1 PROPHET    pred… 2013-06-01 10565.  10109.  11021. M750  2013-06-01
#>  8         1 PROPHET    pred… 2013-07-01  9687.   9231.  10143. M750  2013-07-01
#>  9         1 PROPHET    pred… 2013-08-01  9539.   9083.   9995. M750  2013-08-01
#> 10         1 PROPHET    pred… 2013-09-01 10167.   9711.  10623. M750  2013-09-01
#> # … with 21 more rows, 1 more variable: value <dbl>, and abbreviated variable
#> #   names ¹​.model_desc, ²​.conf_lo, ³​.conf_hi
…
