Preparation for forecasting — modeltime_calibrate • modeltime
…
# ---- FORECAST ----

calibration_tbl %>%
    modeltime_forecast(
        new_data    = testing(splits),
        actual_data = m750
    )
#> # Forecast Results
#>   
#> Conf Method: conformal_default | Conf Interval: 0.95 | Conf By ID: FALSE
#> (GLOBAL CONFIDENCE)
#> # A tibble: 368 × 7
#>    .model_id .model_desc .key   .index     .value .conf_lo .conf_hi
#>        <int> <chr>       <fct>  <date>      <dbl>    <dbl>    <dbl>
#>  1        NA ACTUAL      actual 1990-01-01   6370       NA       NA
#>  2        NA ACTUAL      actual 1990-02-01   6430       NA       NA
#>  3        NA ACTUAL      actual 1990-03-01   6520       NA       NA
#>  4        NA ACTUAL      actual 1990-04-01   6580       NA       NA
#>  5        NA ACTUAL      actual 1990-05-01   6620       NA       NA
#>  6        NA ACTUAL      actual 1990-06-01   6690       NA       NA
#>  7        NA ACTUAL      actual 1990-07-01   6000       NA       NA
#>  8        NA ACTUAL      actual 1990-08-01   5450       NA       NA
#>  9        NA ACTUAL      actual 1990-09-01   6480       NA       NA
#> 10        NA ACTUAL      actual 1990-10-01   6820       NA       NA
#> # ℹ 358 more rows
…
