Prepared Nested Modeltime Data — prep_nested • modeltime
…
nested_data_tbl
#> # A tibble: 7 × 4
#>   id    .actual_data       .future_data      .splits        
#>   <fct> <list>             <list>            <list>         
#> 1 1_1   <tibble [143 × 2]> <tibble [52 × 2]> <split [91|52]>
#> 2 1_3   <tibble [143 × 2]> <tibble [52 × 2]> <split [91|52]>
#> 3 1_8   <tibble [143 × 2]> <tibble [52 × 2]> <split [91|52]>
#> 4 1_13  <tibble [143 × 2]> <tibble [52 × 2]> <split [91|52]>
#> 5 1_38  <tibble [143 × 2]> <tibble [52 × 2]> <split [91|52]>
#> 6 1_93  <tibble [143 × 2]> <tibble [52 × 2]> <split [91|52]>
#> 7 1_95  <tibble [143 × 2]> <tibble [52 × 2]> <split [91|52]>

# Helpers: Getting the Train/Test Sets
extract_nested_train_split(nested_data_tbl, .row_id = 1)
#> # A tibble: 91 × 2
#>    date        value
#>    <date>      <dbl>
#>  1 2010-02-05 24924.
#>  2 2010-02-12 46039.
#>  3 2010-02-19 41596.
#>  4 2010-02-26 19404.
#>  5 2010-03-05 21828.
#>  6 2010-03-12 21043.
#>  7 2010-03-19 22137.
#>  8 2010-03-26 26229.
#>  9 2010-04-02 57258.
#> 10 2010-04-09 42961.
#> # ℹ 81 more rows
…
