Create a Recursive Time Series Model from a Parsnip or Workflow Regression Model — recursive • modeltime
…
    Examples

# \donttest{
# Libraries & Setup ----
library(tidymodels)
library(dplyr)
library(tidyr)
library(timetk)
library(slider)

# ---- SINGLE TIME SERIES (NON-PANEL) -----

m750
#> # A tibble: 306 × 3
#>    id    date       value
#>    <fct> <date>     <dbl>
#>  1 M750  1990-01-01  6370
#>  2 M750  1990-02-01  6430
#>  3 M750  1990-03-01  6520
#>  4 M750  1990-04-01  6580
#>  5 M750  1990-05-01  6620
#>  6 M750  1990-06-01  6690
#>  7 M750  1990-07-01  6000
#>  8 M750  1990-08-01  5450
#>  9 M750  1990-09-01  6480
#> 10 M750  1990-10-01  6820
#> # ℹ 296 more rows
…
# MULTIPLE TIME SERIES (PANEL DATA) -----

m4_monthly
#> # A tibble: 1,574 × 3
#>    id    date       value
#>    <fct> <date>     <dbl>
#>  1 M1    1976-06-01  8000
#>  2 M1    1976-07-01  8350
#>  3 M1    1976-08-01  8570
#>  4 M1    1976-09-01  7700
#>  5 M1    1976-10-01  7080
#>  6 M1    1976-11-01  6520
#>  7 M1    1976-12-01  6070
#>  8 M1    1977-01-01  6650
#>  9 M1    1977-02-01  6830
#> 10 M1    1977-03-01  5710
#> # ℹ 1,564 more rows
…
