…
[`fit.model_spec()`](https://parsnip.tidymodels.org/reference/fit.html),
[`set_engine()`](https://parsnip.tidymodels.org/reference/set_engine.html)

## Examples

``` r
library(dplyr)
library(parsnip)
library(rsample)
library(timetk)

# Data
taylor_30_min
#> # A tibble: 4,032 × 2
#>    date                value
#>    <dttm>              <dbl>
#>  1 2000-06-05 00:00:00 22262
#>  2 2000-06-05 00:30:00 21756
#>  3 2000-06-05 01:00:00 22247
#>  4 2000-06-05 01:30:00 22759
#>  5 2000-06-05 02:00:00 22549
#>  6 2000-06-05 02:30:00 22313
#>  7 2000-06-05 03:00:00 22128
#>  8 2000-06-05 03:30:00 21860
#>  9 2000-06-05 04:00:00 21751
#> 10 2000-06-05 04:30:00 21336
#> # ℹ 4,022 more rows
…
