Forecasting with Global Models • modeltime
…
library(tidymodels)
library(modeltime)
library(tidyverse)
library(timetk)

Dataset

Next, let’s use the walmart_sales_weekly dataset that comes with timetk.

data_tbl <- walmart_sales_weekly %>%
    select(id, Date, Weekly_Sales) %>%
    set_names(c("id", "date", "value"))

data_tbl
#> # A tibble: 1,001 × 3
#>    id    date        value
#>    <fct> <date>      <dbl>
#>  1 1_1   2010-02-05 24924.
#>  2 1_1   2010-02-12 46039.
#>  3 1_1   2010-02-19 41596.
#>  4 1_1   2010-02-26 19404.
#>  5 1_1   2010-03-05 21828.
#>  6 1_1   2010-03-12 21043.
#>  7 1_1   2010-03-19 22137.
#>  8 1_1   2010-03-26 26229.
#>  9 1_1   2010-04-02 57258.
#> 10 1_1   2010-04-09 42961.
#> # … with 991 more rows
…
step_zv(): Used to remove any zero variance features. Features with no variance don’t add useful information to our model.

step_dummy(): Used to convert categorical features to binary one-hot encoded features that algorithms like XGBoost can model more effectively.

This results in 37 derived features for modeling. We can certainly include more features such as lags and rolling features that are known to improve results. These concepts and more are covered in the High-Performance Time Series Course.

rec_obj <- recipe(value ~ ., training(splits)) %>%
    step_mutate_at(id, fn = droplevels) %>%
    step_timeseries_signature(date) %>%
    step_rm(date) %>%
    step_zv(all_predictors()) %>%
    step_dummy(all_nominal_predictors(), one_hot = TRUE)

summary(prep(rec_obj))
#> # A tibble: 38 × 4
#>    variable       type    role      source  
#>    <chr>          <chr>   <chr>     <chr>   
#>  1 value          numeric outcome   original
#>  2 date_index.num numeric predictor derived 
#>  3 date_year      numeric predictor derived 
#>  4 date_year.iso  numeric predictor derived 
#>  5 date_half      numeric predictor derived 
#>  6 date_quarter   numeric predictor derived 
#>  7 date_month     numeric predictor derived 
#>  8 date_month.xts numeric predictor derived 
#>  9 date_day       numeric predictor derived 
#> 10 date_mday      numeric predictor derived 
#> # … with 28 more rows
…
Future Data

Next, make a future dataset using future_frame() from timetk, which creates future time stamps that extend 52-weeks into the future for each ID in the same panel structure needed for our global forecast model.

future_tbl <- data_tbl %>%
  group_by(id) %>%
  future_frame(.length_out = 52, .bind_data = FALSE)

future_tbl
#> # A tibble: 364 × 2
#> # Groups:   id [7]
#>    id    date      
#>    <fct> <date>    
#>  1 1_1   2012-11-02
#>  2 1_1   2012-11-09
#>  3 1_1   2012-11-16
#>  4 1_1   2012-11-23
#>  5 1_1   2012-11-30
#>  6 1_1   2012-12-07
#>  7 1_1   2012-12-14
#>  8 1_1   2012-12-21
#>  9 1_1   2012-12-28
#> 10 1_1   2013-01-04
#> # … with 354 more rows
…
