General Interface for ADAM Regression Models — adam_reg • modeltime
…
#> Warning: package ‘smooth’ was built under R version 4.0.5
#> Loading required package: greybox
#> Warning: package ‘greybox’ was built under R version 4.0.5
#> Registered S3 method overwritten by 'greybox':
#>   method     from
#>   print.pcor lava
#> Package "greybox", v1.0.1 loaded.
#> This is package "smooth", v3.1.3

# Data
m750 <- m4_monthly %>% filter(id == "M750")
m750

#> # A tibble: 306 x 3
#>    id    date       value
#>    <fct> <date>     <dbl>
#>  1 M750  1990-01-01  6370
#>  2 M750  1990-02-01  6430
#>  3 M750  1990-03-01  6520
#>  4 M750  1990-04-01  6580
#>  5 M750  1990-05-01  6620
#>  6 M750  1990-06-01  6690
#>  7 M750  1990-07-01  6000
#>  8 M750  1990-08-01  5450
#>  9 M750  1990-09-01  6480
#> 10 M750  1990-10-01  6820
#> # ... with 296 more rows
…
