General Interface for Exponential Smoothing State Space Models — exp_smoothing • modeltime
…
    fit.model_spec(), set_engine()

    Examples

library(dplyr)
library(parsnip)
library(rsample)
library(timetk)
library(modeltime)

# Data
m750 <- m4_monthly %>% filter(id == "M750")
m750

#> # A tibble: 306 x 3
#>    id    date       value
#>    <fct> <date>     <dbl>
#>  1 M750  1990-01-01  6370
#>  2 M750  1990-02-01  6430
#>  3 M750  1990-03-01  6520
#>  4 M750  1990-04-01  6580
#>  5 M750  1990-05-01  6620
#>  6 M750  1990-06-01  6690
#>  7 M750  1990-07-01  6000
#>  8 M750  1990-08-01  5450
#>  9 M750  1990-09-01  6480
#> 10 M750  1990-10-01  6820
#> # ... with 296 more rows
…
# Fit Spec
model_fit <- model_spec %>%
    fit(log(value) ~ date, data = training(splits))
model_fit

#> parsnip model object
#> 
#> Fit time:  981ms 
#> Croston Method
#> ---
#> # A tibble: 244 x 1
#>    `Point Forecast`
#>               <dbl>
#>  1             9.26
#>  2             9.26
#>  3             9.26
#>  4             9.26
#>  5             9.26
#>  6             9.26
#>  7             9.26
#>  8             9.26
#>  9             9.26
#> 10             9.26
#> # ... with 234 more rows
…
#' # Model Spec
model_spec <- exp_smoothing() %>%
    set_engine("theta")

# Fit Spec
model_fit <- model_spec %>%
    fit(log(value) ~ date, data = training(splits))
model_fit

#> parsnip model object
#> 
#> Fit time:  20ms 
#> Theta Method
#> ---
#> # A tibble: 244 x 5
#>    `Point Forecast` `Lo 80` `Hi 80` `Lo 95` `Hi 95`
#>               <dbl>   <dbl>   <dbl>   <dbl>   <dbl>
#>  1             9.29    9.23    9.35    9.20    9.38
#>  2             9.29    9.21    9.37    9.16    9.42
#>  3             9.29    9.19    9.39    9.13    9.45
#>  4             9.29    9.17    9.41    9.11    9.47
#>  5             9.29    9.16    9.43    9.09    9.50
#>  6             9.29    9.15    9.44    9.07    9.52
#>  7             9.30    9.14    9.45    9.06    9.54
#>  8             9.30    9.13    9.46    9.04    9.55
#>  9             9.30    9.12    9.48    9.03    9.57
#> 10             9.30    9.11    9.49    9.01    9.59
#> # ... with 234 more rows
…
