Forecast future data — modeltime_forecast • modeltime
…
calibration_tbl %>%
    modeltime_accuracy()
#> # A tibble: 1 x 9
#>   .model_id .model_desc             .type   mae  mape  mase smape  rmse   rsq
#>       <int> <chr>                   <chr> <dbl> <dbl> <dbl> <dbl> <dbl> <dbl>
#> 1         1 ARIMA(0,1,1)(0,1,1)[12] Test   151.  1.41 0.516  1.43  198. 0.930

# ---- FORECAST ----

calibration_tbl %>%
    modeltime_forecast(
        new_data    = testing(splits),
        actual_data = m750
    )
#> # A tibble: 337 x 7
#>    .model_id .model_desc .key   .index     .value .conf_lo .conf_hi
#>        <int> <chr>       <fct>  <date>      <dbl>    <dbl>    <dbl>
#>  1        NA ACTUAL      actual 1990-01-01   6370       NA       NA
#>  2        NA ACTUAL      actual 1990-02-01   6430       NA       NA
#>  3        NA ACTUAL      actual 1990-03-01   6520       NA       NA
#>  4        NA ACTUAL      actual 1990-04-01   6580       NA       NA
#>  5        NA ACTUAL      actual 1990-05-01   6620       NA       NA
#>  6        NA ACTUAL      actual 1990-06-01   6690       NA       NA
#>  7        NA ACTUAL      actual 1990-07-01   6000       NA       NA
#>  8        NA ACTUAL      actual 1990-08-01   5450       NA       NA
#>  9        NA ACTUAL      actual 1990-09-01   6480       NA       NA
#> 10        NA ACTUAL      actual 1990-10-01   6820       NA       NA
#> # ... with 327 more rows
…
