Developer Tools for parsing date and date-time information — parse_index • modeltime
…
parse_period_from_index(): Returns the numeric period from a tibble containing the index.

    Examples

library(dplyr)
library(timetk)

predictors <- m4_monthly %>%
    filter(id == "M750") %>%
    select(-value)

index_tbl <- parse_index_from_data(predictors)
index_tbl

#> # A tibble: 306 × 1
#>    date      
#>    <date>    
#>  1 1990-01-01
#>  2 1990-02-01
#>  3 1990-03-01
#>  4 1990-04-01
#>  5 1990-05-01
#>  6 1990-06-01
#>  7 1990-07-01
#>  8 1990-08-01
#>  9 1990-09-01
#> 10 1990-10-01
#> # … with 296 more rows
…
