Create a recursive time series model from arbitrary parsnip regression model — recursive • modeltime
…
Jumping into point 2., and repeating rest of steps till the for-loop is ended.

    Examples

# Libraries & Setup ----
library(modeltime)
library(tidymodels)
library(tidyverse)
library(lubridate)
library(timetk)
library(slider)

m750

#> # A tibble: 306 x 3
#>    id    date       value
#>    <fct> <date>     <dbl>
#>  1 M750  1990-01-01  6370
#>  2 M750  1990-02-01  6430
#>  3 M750  1990-03-01  6520
#>  4 M750  1990-04-01  6580
#>  5 M750  1990-05-01  6620
#>  6 M750  1990-06-01  6690
#>  7 M750  1990-07-01  6000
#>  8 M750  1990-08-01  5450
#>  9 M750  1990-09-01  6480
#> 10 M750  1990-10-01  6820
#> # … with 296 more rows
…
#> .date_var is missing. Using: date

# METHOD 1: RECIPE ----
# - Used for recursive transformations via recipe prepeocessing steps

# Lag Recipe
recipe_lag <- recipe(value ~ date, m750_extended) %>%
    step_lag(value, lag = 1:12)

# Data Preparation
m750_lagged <- recipe_lag %>% prep() %>% juice()

m750_lagged

#> # A tibble: 330 x 14
#>    date       value lag_1_value lag_2_value lag_3_value lag_4_value lag_5_value
#>    <date>     <dbl>       <dbl>       <dbl>       <dbl>       <dbl>       <dbl>
#>  1 1990-01-01  6370          NA          NA          NA          NA          NA
#>  2 1990-02-01  6430        6370          NA          NA          NA          NA
#>  3 1990-03-01  6520        6430        6370          NA          NA          NA
#>  4 1990-04-01  6580        6520        6430        6370          NA          NA
#>  5 1990-05-01  6620        6580        6520        6430        6370          NA
#>  6 1990-06-01  6690        6620        6580        6520        6430        6370
#>  7 1990-07-01  6000        6690        6620        6580        6520        6430
#>  8 1990-08-01  5450        6000        6690        6620        6580        6520
#>  9 1990-09-01  6480        5450        6000        6690        6620        6580
#> 10 1990-10-01  6820        6480        5450        6000        6690        6620
#> # … with 320 more rows, and 7 more variables: lag_6_value <dbl>,
#> #   lag_7_value <dbl>, lag_8_value <dbl>, lag_9_value <dbl>,
#> #   lag_10_value <dbl>, lag_11_value <dbl>, lag_12_value <dbl>
…
# Data Preparation
m750_rolling <- m750_extended %>%
    mutate(moving_sum = lag(slide_dbl(
        value, .f = mean, .before = 4L
    ), 1)) %>%
    select(-id)

m750_rolling

#> # A tibble: 330 x 3
#>    date       value moving_sum
#>    <date>     <dbl>      <dbl>
#>  1 1990-01-01  6370         NA
#>  2 1990-02-01  6430       6370
#>  3 1990-03-01  6520       6400
#>  4 1990-04-01  6580       6440
#>  5 1990-05-01  6620       6475
#>  6 1990-06-01  6690       6504
#>  7 1990-07-01  6000       6568
#>  8 1990-08-01  5450       6482
#>  9 1990-09-01  6480       6268
#> 10 1990-10-01  6820       6248
#> # … with 320 more rows
…
