General Interface for Window Forecast Models — window_reg • modeltime
…
    fit.model_spec(), set_engine()

    Examples

library(dplyr)
library(parsnip)
library(rsample)
library(timetk)
library(modeltime)

# Data
m750 <- m4_monthly %>% filter(id == "M750")
m750

#> # A tibble: 306 × 3
#>    id    date       value
#>    <fct> <date>     <dbl>
#>  1 M750  1990-01-01  6370
#>  2 M750  1990-02-01  6430
#>  3 M750  1990-03-01  6520
#>  4 M750  1990-04-01  6580
#>  5 M750  1990-05-01  6620
#>  6 M750  1990-06-01  6690
#>  7 M750  1990-07-01  6000
#>  8 M750  1990-08-01  5450
#>  9 M750  1990-09-01  6480
#> 10 M750  1990-10-01  6820
#> # … with 296 more rows
…
# Predict
# - The 12-month median repeats going forward
predict(model_fit, testing(splits))

#> # A tibble: 62 × 1
#>    .pred
#>    <dbl>
#>  1  9.26
#>  2  9.26
#>  3  9.26
#>  4  9.26
#>  5  9.26
#>  6  9.26
#>  7  9.26
#>  8  9.26
#>  9  9.26
#> 10  9.26
#> # … with 52 more rows
…
#> parsnip model object
#> 
#> Fit time:  17ms 
#> WINDOW FUNC [12]
#> --------
#> Model: 
#> # A tibble: 1 × 2
#>   id    value
#>   <fct> <dbl>
#> 1 M750   9.29

# Predict: The weighted average (scalar) repeats going forward
predict(model_fit, testing(splits))

#> # A tibble: 62 × 1
#>    .pred
#>    <dbl>
#>  1  9.29
#>  2  9.29
#>  3  9.29
#>  4  9.29
#>  5  9.29
#>  6  9.29
#>  7  9.29
#>  8  9.29
#>  9  9.29
#> 10  9.29
#> # … with 52 more rows
…
# Predict: The sequence is broadcasted (repeated) during prediction
predict(model_fit, testing(splits))

#> # A tibble: 62 × 1
#>    .pred
#>    <dbl>
#>  1  9.27
#>  2  9.27
#>  3  9.15
#>  4  9.19
#>  5  9.18
#>  6  9.25
#>  7  9.26
#>  8  9.27
#>  9  9.26
#> 10  9.26
#> # … with 52 more rows
…
