…
### Dataset

Next, let’s use the `walmart_sales_weekly` dataset that comes with
`timetk`.

``` r
data_tbl <- walmart_sales_weekly %>%
    select(id, date = Date, value = Weekly_Sales)

data_tbl
#> # A tibble: 1,001 × 3
#>    id    date        value
#>    <fct> <date>      <dbl>
#>  1 1_1   2010-02-05 24924.
#>  2 1_1   2010-02-12 46039.
#>  3 1_1   2010-02-19 41596.
#>  4 1_1   2010-02-26 19404.
#>  5 1_1   2010-03-05 21828.
#>  6 1_1   2010-03-12 21043.
#>  7 1_1   2010-03-19 22137.
#>  8 1_1   2010-03-26 26229.
#>  9 1_1   2010-04-02 57258.
#> 10 1_1   2010-04-09 42961.
#> # ℹ 991 more rows
```
…
