…
## Make a Recursive Forecast Model

We’ll start with the simplest example, turning a Linear Regresion into
an Autoregressive model.

### Data Visualization

Let’s start with the `m750` dataset.

``` r
m750
#> # A tibble: 306 × 3
#>    id    date       value
#>    <fct> <date>     <dbl>
#>  1 M750  1990-01-01  6370
#>  2 M750  1990-02-01  6430
#>  3 M750  1990-03-01  6520
#>  4 M750  1990-04-01  6580
#>  5 M750  1990-05-01  6620
#>  6 M750  1990-06-01  6690
#>  7 M750  1990-07-01  6000
#>  8 M750  1990-08-01  5450
#>  9 M750  1990-09-01  6480
#> 10 M750  1990-10-01  6820
#> # ℹ 296 more rows
```
…
### Apply the Transform Function

When we apply the lag roll transformation to our extended data set, we
can see the effect.

``` r
m750_rolling <- m750_extended %>%
    lag_roll_transformer() %>%
    select(-id)

m750_rolling
#> # A tibble: 330 × 27
#>    date       value value_lag1 value_lag2 value_lag3 value_lag4 value_lag5
#>    <date>     <dbl>      <dbl>      <dbl>      <dbl>      <dbl>      <dbl>
#>  1 1990-01-01  6370         NA         NA         NA         NA         NA
#>  2 1990-02-01  6430       6370         NA         NA         NA         NA
#>  3 1990-03-01  6520       6430       6370         NA         NA         NA
#>  4 1990-04-01  6580       6520       6430       6370         NA         NA
#>  5 1990-05-01  6620       6580       6520       6430       6370         NA
#>  6 1990-06-01  6690       6620       6580       6520       6430       6370
#>  7 1990-07-01  6000       6690       6620       6580       6520       6430
#>  8 1990-08-01  5450       6000       6690       6620       6580       6520
#>  9 1990-09-01  6480       5450       6000       6690       6620       6580
#> 10 1990-10-01  6820       6480       5450       6000       6690       6620
#> # ℹ 320 more rows
#> # ℹ 20 more variables: value_lag6 <dbl>, value_lag7 <dbl>, value_lag8 <dbl>,
#> #   value_lag9 <dbl>, value_lag10 <dbl>, value_lag11 <dbl>, value_lag12 <dbl>,
#> #   value_lag13 <dbl>, value_lag14 <dbl>, value_lag15 <dbl>, value_lag16 <dbl>,
#> #   value_lag17 <dbl>, value_lag18 <dbl>, value_lag19 <dbl>, value_lag20 <dbl>,
#> #   value_lag21 <dbl>, value_lag22 <dbl>, value_lag23 <dbl>, value_lag24 <dbl>,
#> #   value_lag12_roll_12 <dbl>
```

### Split into Training and Future Data

The **training data** needs to be completely filled in. We remove any
rows with `NA`.

``` r
train_data <- m750_rolling %>%
    drop_na()

train_data
#> # A tibble: 282 × 27
#>    date       value value_lag1 value_lag2 value_lag3 value_lag4 value_lag5
#>    <date>     <dbl>      <dbl>      <dbl>      <dbl>      <dbl>      <dbl>
#>  1 1992-01-01  7030       7040       7000       6980       6550       5780
#>  2 1992-02-01  7170       7030       7040       7000       6980       6550
#>  3 1992-03-01  7150       7170       7030       7040       7000       6980
#>  4 1992-04-01  7180       7150       7170       7030       7040       7000
#>  5 1992-05-01  7140       7180       7150       7170       7030       7040
#>  6 1992-06-01  7100       7140       7180       7150       7170       7030
#>  7 1992-07-01  6490       7100       7140       7180       7150       7170
#>  8 1992-08-01  6060       6490       7100       7140       7180       7150
#>  9 1992-09-01  6870       6060       6490       7100       7140       7180
#> 10 1992-10-01  6880       6870       6060       6490       7100       7140
#> # ℹ 272 more rows
#> # ℹ 20 more variables: value_lag6 <dbl>, value_lag7 <dbl>, value_lag8 <dbl>,
#> #   value_lag9 <dbl>, value_lag10 <dbl>, value_lag11 <dbl>, value_lag12 <dbl>,
#> #   value_lag13 <dbl>, value_lag14 <dbl>, value_lag15 <dbl>, value_lag16 <dbl>,
#> #   value_lag17 <dbl>, value_lag18 <dbl>, value_lag19 <dbl>, value_lag20 <dbl>,
#> #   value_lag21 <dbl>, value_lag22 <dbl>, value_lag23 <dbl>, value_lag24 <dbl>,
#> #   value_lag12_roll_12 <dbl>
```

The **future data** has missing values in the “value” column. We isolate
these. Our autoregressive algorithm will predict these. Notice that the
lags have missing data, this is OK - and why we are going to use
[`recursive()`](https://business-science.github.io/modeltime/reference/recursive.md)
to fill these missing values in with predictions.

``` r
future_data <- m750_rolling %>%
    filter(is.na(value))

future_data
#> # A tibble: 24 × 27
#>    date       value value_lag1 value_lag2 value_lag3 value_lag4 value_lag5
#>    <date>     <dbl>      <dbl>      <dbl>      <dbl>      <dbl>      <dbl>
#>  1 2015-07-01    NA      11000      11310      11290      11250      11010
#>  2 2015-08-01    NA         NA      11000      11310      11290      11250
#>  3 2015-09-01    NA         NA         NA      11000      11310      11290
#>  4 2015-10-01    NA         NA         NA         NA      11000      11310
#>  5 2015-11-01    NA         NA         NA         NA         NA      11000
#>  6 2015-12-01    NA         NA         NA         NA         NA         NA
#>  7 2016-01-01    NA         NA         NA         NA         NA         NA
#>  8 2016-02-01    NA         NA         NA         NA         NA         NA
#>  9 2016-03-01    NA         NA         NA         NA         NA         NA
#> 10 2016-04-01    NA         NA         NA         NA         NA         NA
#> # ℹ 14 more rows
#> # ℹ 20 more variables: value_lag6 <dbl>, value_lag7 <dbl>, value_lag8 <dbl>,
#> #   value_lag9 <dbl>, value_lag10 <dbl>, value_lag11 <dbl>, value_lag12 <dbl>,
#> #   value_lag13 <dbl>, value_lag14 <dbl>, value_lag15 <dbl>, value_lag16 <dbl>,
#> #   value_lag17 <dbl>, value_lag18 <dbl>, value_lag19 <dbl>, value_lag20 <dbl>,
#> #   value_lag21 <dbl>, value_lag22 <dbl>, value_lag23 <dbl>, value_lag24 <dbl>,
#> #   value_lag12_roll_12 <dbl>
```
…
### Apply the Transform Function

We apply the groupwise lag transformation to the extended data set. This
adds autoregressive features.

``` r
m4_lags <- m4_extended %>%
    lag_roll_transformer_grouped()

m4_lags
#> # A tibble: 1,670 × 28
#>    id    date       value value_lag1 value_lag2 value_lag3 value_lag4 value_lag5
#>    <fct> <date>     <dbl>      <dbl>      <dbl>      <dbl>      <dbl>      <dbl>
#>  1 M1    1976-06-01  8000         NA         NA         NA         NA         NA
#>  2 M1    1976-07-01  8350       8000         NA         NA         NA         NA
#>  3 M1    1976-08-01  8570       8350       8000         NA         NA         NA
#>  4 M1    1976-09-01  7700       8570       8350       8000         NA         NA
#>  5 M1    1976-10-01  7080       7700       8570       8350       8000         NA
#>  6 M1    1976-11-01  6520       7080       7700       8570       8350       8000
#>  7 M1    1976-12-01  6070       6520       7080       7700       8570       8350
#>  8 M1    1977-01-01  6650       6070       6520       7080       7700       8570
#>  9 M1    1977-02-01  6830       6650       6070       6520       7080       7700
#> 10 M1    1977-03-01  5710       6830       6650       6070       6520       7080
#> # ℹ 1,660 more rows
#> # ℹ 20 more variables: value_lag6 <dbl>, value_lag7 <dbl>, value_lag8 <dbl>,
#> #   value_lag9 <dbl>, value_lag10 <dbl>, value_lag11 <dbl>, value_lag12 <dbl>,
#> #   value_lag13 <dbl>, value_lag14 <dbl>, value_lag15 <dbl>, value_lag16 <dbl>,
#> #   value_lag17 <dbl>, value_lag18 <dbl>, value_lag19 <dbl>, value_lag20 <dbl>,
#> #   value_lag21 <dbl>, value_lag22 <dbl>, value_lag23 <dbl>, value_lag24 <dbl>,
#> #   value_lag12_roll_12 <dbl>
```
…
